Unloading 10 Sydney
Unloading 20 A
Unloading 30 B
Unloading 40 C
Unloading 50 D
Unloading 60 E
Unloading 70 F
Unloading 80 G
Unloading 90 H
Unloading 100 I
Unloading 110 J
Unloading 120 K
Unloading 130 L
Unloading 140 M
Unloading 150 N
Unloading 160 O
Unloading 170 P
Unloading 180 Q
Unloading 190 R
Unloading 200 S
Unloading 210 T
Cost 100 Sydney A
Cost 100 Sydney B
Cost 100 Sydney C
Cost 100 Sydney D
Cost 100 Sydney E
Cost 100 A B
Cost 100 A E
Cost 100 C D
Cost 100 A J
Cost 100 A K
Cost 100 A F
Cost 100 E J
Cost 100 J K
Cost 100 K F
Cost 100 F B
Cost 100 B G
Cost 100 L B
Cost 100 F L
Cost 100 L G
Cost 100 G C
Cost 100 G M
Cost 100 C M
Cost 100 H M
Cost 100 C H
Cost 100 D H
Cost 100 H N
Cost 100 D N
Cost 100 D I
Cost 100 N I
Cost 100 I E
Cost 100 I O
Cost 100 O E
Cost 100 O J
Job Sydney A
Job Sydney E
Job A F
Job A K
Job A J
Job C D
Job C M
Job F K
Job G B
Job H D
Job H N
Job I E
Job J O
Job L B
